\contentsline {section}{\numberline {1}Preparation}{2}{section.1}
\contentsline {section}{\numberline {2}Syscall implementation}{2}{section.2}
\contentsline {section}{\numberline {3}Confirguration}{3}{section.3}
\contentsline {section}{\numberline {4}Compile and install linux kernel}{3}{section.4}
\contentsline {section}{\numberline {5}Testing}{3}{section.5}
\contentsline {section}{\numberline {6}Wrapper}{3}{section.6}
\contentsline {section}{\numberline {7}Validation}{4}{section.7}
\contentsline {section}{\numberline {8}Gitlab}{4}{section.8}
