\relax 
\providecommand\zref@newlabel[2]{}
\providecommand\hyper@newdestlabel[2]{}
\providecommand\HyperFirstAtBeginDocument{\AtBeginDocument}
\HyperFirstAtBeginDocument{\ifx\hyper@anchor\@undefined
\global\let\oldcontentsline\contentsline
\gdef\contentsline#1#2#3#4{\oldcontentsline{#1}{#2}{#3}}
\global\let\oldnewlabel\newlabel
\gdef\newlabel#1#2{\newlabelxx{#1}#2}
\gdef\newlabelxx#1#2#3#4#5#6{\oldnewlabel{#1}{{#2}{#3}}}
\AtEndDocument{\ifx\hyper@anchor\@undefined
\let\contentsline\oldcontentsline
\let\newlabel\oldnewlabel
\fi}
\fi}
\global\let\hyper@last\relax 
\gdef\HyperFirstAtBeginDocument#1{#1}
\providecommand\HyField@AuxAddToFields[1]{}
\providecommand\HyField@AuxAddToCoFields[2]{}
\providecommand \oddpage@label [2]{}
\pgfsyspdfmark {pgfid1}{5644739}{49161263}
\@writefile{toc}{\contentsline {section}{\numberline {1}Preparation}{2}{section.1}}
\@writefile{toc}{\contentsline {section}{\numberline {2}Syscall implementation}{2}{section.2}}
\@writefile{toc}{\contentsline {section}{\numberline {3}Confirguration}{3}{section.3}}
\@writefile{toc}{\contentsline {section}{\numberline {4}Compile and install linux kernel}{3}{section.4}}
\@writefile{toc}{\contentsline {section}{\numberline {5}Testing}{3}{section.5}}
\@writefile{toc}{\contentsline {section}{\numberline {6}Wrapper}{3}{section.6}}
\@writefile{toc}{\contentsline {section}{\numberline {7}Validation}{4}{section.7}}
\@writefile{toc}{\contentsline {section}{\numberline {8}Gitlab}{4}{section.8}}
\newlabel{LastPage}{{}{4}{}{page.4}{}}
\xdef\lastpage@lastpage{4}
\xdef\lastpage@lastpageHy{4}
